Data Analysis with R
…
We can do some prelimanry check on the attributes of the datasets

class(sales)
dim(sales)
names(sales)
str(sales)
glimpse(sales) # dplyr method

As the table is large and hard to read, dplyr has a function called as_data_frame() that allow us to convert it to a tidier format.

sales <- as_data_frame(sales) # note that we have overide the old variable
sales

## # A tibble: 416 x 6
##     year      types                           property_type category
##    <int>     <fctr>                                  <fctr>   <fctr>
##  1  2006 Commercial                 Shops and Eating Houses     Sold
##  2  2006 Commercial                 Shops and Eating Houses   Rented
##  3  2006 Commercial                                 Offices     Sold
##  4  2006 Commercial                                 Offices   Rented
##  5  2006 Commercial                Supermarkets & Emporiums     Sold
##  6  2006 Commercial                Supermarkets & Emporiums   Rented
##  7  2006 Commercial Civil Defence Shelters (commercial use)     Sold
##  8  2006 Commercial Civil Defence Shelters (commercial use)   Rented
##  9  2006 Commercial                 Shops and Eating Houses     Sold
## 10  2007 Commercial                 Shops and Eating Houses   Rented
## # ... with 406 more rows, and 2 more variables: subcategory <fctr>,
## #   no_of_units <int>
…
## # A tibble: 3 x 1
##         types
##        <fctr>
## 1  Commercial
## 2  Industrial
## 3 Residential

Now lets filter out all the Residential Properties

filter(sales, types == "Residential")

## Warning: package 'bindrcpp' was built under R version 3.3.3

## # A tibble: 202 x 6
##     year       types property_type category
##    <int>      <fctr>        <fctr>   <fctr>
##  1  2006 Residential           HDB     Sold
##  2  2006 Residential           HDB     Sold
##  3  2006 Residential           HDB     Sold
##  4  2006 Residential           HDB     Sold
##  5  2006 Residential           HDB     Sold
##  6  2006 Residential           HDB     Sold
##  7  2006 Residential           HDB     Sold
##  8  2006 Residential           HDB   Rented
##  9  2006 Residential           HDB   Rented
## 10  2006 Residential           HDB   Rented
## # ... with 192 more rows, and 2 more variables: subcategory <fctr>,
## #   no_of_units <int>

Filtering can also be done through logical operator like,

And – &

Or – |

Filter all types == “Residential”

filter(sales, types == "Residential" & category == "Sold")

## # A tibble: 101 x 6
##     year       types property_type category
##    <int>      <fctr>        <fctr>   <fctr>
##  1  2006 Residential           HDB     Sold
##  2  2006 Residential           HDB     Sold
##  3  2006 Residential           HDB     Sold
##  4  2006 Residential           HDB     Sold
##  5  2006 Residential           HDB     Sold
##  6  2006 Residential           HDB     Sold
##  7  2006 Residential           HDB     Sold
##  8  2006 Residential          DBSS     Sold
##  9  2006 Residential          DBSS     Sold
## 10  2006 Residential          DBSS     Sold
## # ... with 91 more rows, and 2 more variables: subcategory <fctr>,
## #   no_of_units <int>

Filter all types == “HDB”

filter(sales, property_type == "HDB" | property_type == "DBSS")

## # A tibble: 202 x 6
##     year       types property_type category
##    <int>      <fctr>        <fctr>   <fctr>
##  1  2006 Residential           HDB     Sold
##  2  2006 Residential           HDB     Sold
##  3  2006 Residential           HDB     Sold
##  4  2006 Residential           HDB     Sold
##  5  2006 Residential           HDB     Sold
##  6  2006 Residential           HDB     Sold
##  7  2006 Residential           HDB     Sold
##  8  2006 Residential           HDB   Rented
##  9  2006 Residential           HDB   Rented
## 10  2006 Residential           HDB   Rented
## # ... with 192 more rows, and 2 more variables: subcategory <fctr>,
## #   no_of_units <int>
…
filter(sales, year == "2009", property_type == "HDB")

Filter out all rented HDB units that are 5 Room Flats

filter(sales, property_type == "HDB", category == "Rented", subcategory == "5-room flats")

3.4 Arrange

arrange() allows us to arrange or sort the rows based on the columns that we select.

Lets arrange by property type.

arrange(sales, property_type)

## # A tibble: 416 x 6
##     year      types         property_type category subcategory no_of_units
##    <int>     <fctr>                <fctr>   <fctr>      <fctr>       <int>
##  1  2006 Industrial Canteens/Eating House     Sold          NA          NA
##  2  2006 Industrial Canteens/Eating House   Rented          NA           5
##  3  2007 Industrial Canteens/Eating House     Sold          NA          NA
##  4  2007 Industrial Canteens/Eating House   Rented          NA           1
##  5  2008 Industrial Canteens/Eating House     Sold          NA          NA
##  6  2008 Industrial Canteens/Eating House   Rented          NA           0
##  7  2009 Industrial Canteens/Eating House     Sold          NA          NA
##  8  2009 Industrial Canteens/Eating House   Rented          NA           0
##  9  2010 Industrial Canteens/Eating House     Sold          NA          NA
## 10  2010 Industrial Canteens/Eating House   Rented          NA           0
## # ... with 406 more rows

We can also arrange by multiple columns.

arrange(sales, property_type, category)

## # A tibble: 416 x 6
##     year      types         property_type category subcategory no_of_units
##    <int>     <fctr>                <fctr>   <fctr>      <fctr>       <int>
##  1  2006 Industrial Canteens/Eating House   Rented          NA           5
##  2  2007 Industrial Canteens/Eating House   Rented          NA           1
##  3  2008 Industrial Canteens/Eating House   Rented          NA           0
##  4  2009 Industrial Canteens/Eating House   Rented          NA           0
##  5  2010 Industrial Canteens/Eating House   Rented          NA           0
##  6  2011 Industrial Canteens/Eating House   Rented          NA           0
##  7  2012 Industrial Canteens/Eating House   Rented          NA           0
##  8  2013 Industrial Canteens/Eating House   Rented          NA           1
##  9  2014 Industrial Canteens/Eating House   Rented          NA           0
## 10  2015 Industrial Canteens/Eating House   Rented          NA           0
## # ... with 406 more rows

To sort in descending order, we can use the desc() function.

arrange(sales, desc(property_type))

## # A tibble: 416 x 6
##     year      types     property_type category subcategory no_of_units
##    <int>     <fctr>            <fctr>   <fctr>      <fctr>       <int>
##  1  2014 Industrial Wholesale Centres     Sold          NA          NA
##  2  2014 Industrial Wholesale Centres   Rented          NA           8
##  3  2015 Industrial Wholesale Centres     Sold          NA          NA
##  4  2015 Industrial Wholesale Centres   Rented          NA          15
##  5  2006 Industrial         Warehouse     Sold          NA          NA
##  6  2006 Industrial         Warehouse   Rented          NA           5
##  7  2007 Industrial         Warehouse     Sold          NA          NA
##  8  2007 Industrial         Warehouse   Rented          NA           8
##  9  2008 Industrial         Warehouse     Sold          NA          NA
## 10  2008 Industrial         Warehouse   Rented          NA           0
## # ... with 406 more rows

We can also sort in both ascending and descending order.

arrange(sales, desc(property_type), category)

## # A tibble: 416 x 6
##     year      types     property_type category subcategory no_of_units
##    <int>     <fctr>            <fctr>   <fctr>      <fctr>       <int>
##  1  2014 Industrial Wholesale Centres   Rented          NA           8
##  2  2015 Industrial Wholesale Centres   Rented          NA          15
##  3  2014 Industrial Wholesale Centres     Sold          NA          NA
##  4  2015 Industrial Wholesale Centres     Sold          NA          NA
##  5  2006 Industrial         Warehouse   Rented          NA           5
##  6  2007 Industrial         Warehouse   Rented          NA           8
##  7  2008 Industrial         Warehouse   Rented          NA           0
##  8  2009 Industrial         Warehouse   Rented          NA           1
##  9  2010 Industrial         Warehouse   Rented          NA           0
## 10  2011 Industrial         Warehouse   Rented          NA           0
## # ... with 406 more rows
…
arrange(sales, desc(no_of_units))

Sort in descending order the total number of units sold by year

arrange(sales, year, desc(no_of_units))

3.5 Select

select() allows us to select specific columns that we want to scope in.

Lets says we want to only scope into or select the column, no_of_units,

select(sales, no_of_units)

## # A tibble: 416 x 1
##    no_of_units
##          <int>
##  1          NA
##  2         287
##  3          NA
##  4         112
##  5          NA
##  6           6
##  7          NA
##  8          23
##  9          17
## 10         330
## # ... with 406 more rows

We are not confine to selecting a single column. to select multiple column, all we just need to do is specify all the column name that we want.

select(sales, year, property_type, no_of_units)

## # A tibble: 416 x 3
##     year                           property_type no_of_units
##    <int>                                  <fctr>       <int>
##  1  2006                 Shops and Eating Houses          NA
##  2  2006                 Shops and Eating Houses         287
##  3  2006                                 Offices          NA
##  4  2006                                 Offices         112
##  5  2006                Supermarkets & Emporiums          NA
##  6  2006                Supermarkets & Emporiums           6
##  7  2006 Civil Defence Shelters (commercial use)          NA
##  8  2006 Civil Defence Shelters (commercial use)          23
##  9  2006                 Shops and Eating Houses          17
## 10  2007                 Shops and Eating Houses         330
## # ... with 406 more rows

Alternatively, instead of specifying the column that we want, we can also select the columns by dropping the column the we want. we can do that by appending a negative sign, infront on the column that we wish to drop.

select(sales, -types, -category, -subcategory)

## # A tibble: 416 x 3
##     year                           property_type no_of_units
##    <int>                                  <fctr>       <int>
##  1  2006                 Shops and Eating Houses          NA
##  2  2006                 Shops and Eating Houses         287
##  3  2006                                 Offices          NA
##  4  2006                                 Offices         112
##  5  2006                Supermarkets & Emporiums          NA
##  6  2006                Supermarkets & Emporiums           6
##  7  2006 Civil Defence Shelters (commercial use)          NA
##  8  2006 Civil Defence Shelters (commercial use)          23
##  9  2006                 Shops and Eating Houses          17
## 10  2007                 Shops and Eating Houses         330
## # ... with 406 more rows

Alternative to arrange(), we can also re-arrange coloumns through the select function as well. we used the function `everything()’ to specify the remaining column that we have no selected.

select(sales, no_of_units, everything())

## # A tibble: 416 x 6
##    no_of_units  year      types                           property_type
##          <int> <int>     <fctr>                                  <fctr>
##  1          NA  2006 Commercial                 Shops and Eating Houses
##  2         287  2006 Commercial                 Shops and Eating Houses
##  3          NA  2006 Commercial                                 Offices
##  4         112  2006 Commercial                                 Offices
##  5          NA  2006 Commercial                Supermarkets & Emporiums
##  6           6  2006 Commercial                Supermarkets & Emporiums
##  7          NA  2006 Commercial Civil Defence Shelters (commercial use)
##  8          23  2006 Commercial Civil Defence Shelters (commercial use)
##  9          17  2006 Commercial                 Shops and Eating Houses
## 10         330  2007 Commercial                 Shops and Eating Houses
## # ... with 406 more rows, and 2 more variables: category <fctr>,
## #   subcategory <fctr>
3.6 Mutate

mutate() allows us to add or modify a new coloumn to any datasets. we are also able to use any mathematical function or any user-defined function within the mutate() function.

Lets start by adding a new column which calculate’s the total number of units sold for Residential types only.

To do this we have to first filter out all types that is “Residential”

residential <- filter(sales, types == "Residential")

Next we can add a new column by giving a name “total_units”.

mutate(residential, total_units = sum(no_of_units))

## # A tibble: 202 x 7
##     year       types property_type category
##    <int>      <fctr>        <fctr>   <fctr>
##  1  2006 Residential           HDB     Sold
##  2  2006 Residential           HDB     Sold
##  3  2006 Residential           HDB     Sold
##  4  2006 Residential           HDB     Sold
##  5  2006 Residential           HDB     Sold
##  6  2006 Residential           HDB     Sold
##  7  2006 Residential           HDB     Sold
##  8  2006 Residential           HDB   Rented
##  9  2006 Residential           HDB   Rented
## 10  2006 Residential           HDB   Rented
## # ... with 192 more rows, and 3 more variables: subcategory <fctr>,
## #   no_of_units <int>, total_units <int>

mutate(residential, total_units = sum(no_of_units, na.rm = TRUE))

## # A tibble: 202 x 7
##     year       types property_type category
##    <int>      <fctr>        <fctr>   <fctr>
##  1  2006 Residential           HDB     Sold
##  2  2006 Residential           HDB     Sold
##  3  2006 Residential           HDB     Sold
##  4  2006 Residential           HDB     Sold
##  5  2006 Residential           HDB     Sold
##  6  2006 Residential           HDB     Sold
##  7  2006 Residential           HDB     Sold
##  8  2006 Residential           HDB   Rented
##  9  2006 Residential           HDB   Rented
## 10  2006 Residential           HDB   Rented
## # ... with 192 more rows, and 3 more variables: subcategory <fctr>,
## #   no_of_units <int>, total_units <int>
…
Summarise and Mutate by itself is not interesting. we have to pair it with group_by() to derive meaningful insights from the datasets.

3.8 Group By

group_by() allows us to group the data set by certain column. It is, however, better to pair it with summarise(), mutate() and filter().

Supposed we want to find the proportion of each property types to the total property, we 1st have to group them by the property type.

temp <- group_by(sales, property_type)
temp

## # A tibble: 416 x 6
## # Groups:   property_type [15]
##     year      types                           property_type category
##    <int>     <fctr>                                  <fctr>   <fctr>
##  1  2006 Commercial                 Shops and Eating Houses     Sold
##  2  2006 Commercial                 Shops and Eating Houses   Rented
##  3  2006 Commercial                                 Offices     Sold
##  4  2006 Commercial                                 Offices   Rented
##  5  2006 Commercial                Supermarkets & Emporiums     Sold
##  6  2006 Commercial                Supermarkets & Emporiums   Rented
##  7  2006 Commercial Civil Defence Shelters (commercial use)     Sold
##  8  2006 Commercial Civil Defence Shelters (commercial use)   Rented
##  9  2006 Commercial                 Shops and Eating Houses     Sold
## 10  2007 Commercial                 Shops and Eating Houses   Rented
## # ... with 406 more rows, and 2 more variables: subcategory <fctr>,
## #   no_of_units <int>
…
Exercise

dplyr offers a few inbuilt data sets to play around with. Try out the starwars dataset and see what kind of information we can derive from it.

starwars

## # A tibble: 87 x 13
##                  name height  mass    hair_color  skin_color eye_color
##                 <chr>  <int> <dbl>         <chr>       <chr>     <chr>
##  1     Luke Skywalker    172    77         blond        fair      blue
##  2              C-3PO    167    75          <NA>        gold    yellow
##  3              R2-D2     96    32          <NA> white, blue       red
##  4        Darth Vader    202   136          none       white    yellow
##  5        Leia Organa    150    49         brown       light     brown
##  6          Owen Lars    178   120   brown, grey       light      blue
##  7 Beru Whitesun lars    165    75         brown       light      blue
##  8              R5-D4     97    32          <NA>  white, red       red
##  9  Biggs Darklighter    183    84         black       light     brown
## 10     Obi-Wan Kenobi    182    77 auburn, white        fair blue-gray
## # ... with 77 more rows, and 7 more variables: birth_year <dbl>,
## #   gender <chr>, homeworld <chr>, species <chr>, films <list>,
## #   vehicles <list>, starships <list>
