Data Analysis with R
…
Before we can import the Data Sets, we have to ensure the the .csv file is the same project folder. we can first check if we are in the correct directory by using getwd()

# check if the dataset is in the same project folder
getwd()

If it is not in the same project folder, we can set it manually by passing the correct path into the function setwd().

setwd("       ")

Once these are settled, we can import the datasets using the read.csv() function.

movies <- read.csv("movie_metadata.csv", strip.white = TRUE) %>% as_data_frame()
movies

## # A tibble: 5,043 x 28
##     color     director_name num_critic_for_reviews duration
##    <fctr>            <fctr>                  <int>    <int>
##  1  Color     James Cameron                    723      178
##  2  Color    Gore Verbinski                    302      169
##  3  Color        Sam Mendes                    602      148
##  4  Color Christopher Nolan                    813      164
##  5              Doug Walker                     NA       NA
##  6  Color    Andrew Stanton                    462      132
##  7  Color         Sam Raimi                    392      156
##  8  Color      Nathan Greno                    324      100
##  9  Color       Joss Whedon                    635      141
## 10  Color       David Yates                    375      153
## # ... with 5,033 more rows, and 24 more variables:
## #   director_facebook_likes <int>, actor_3_facebook_likes <int>,
## #   actor_2_name <fctr>, actor_1_facebook_likes <int>, gross <int>,
## #   genres <fctr>, actor_1_name <fctr>, movie_title <fctr>,
## #   num_voted_users <int>, cast_total_facebook_likes <int>,
## #   actor_3_name <fctr>, facenumber_in_poster <int>, plot_keywords <fctr>,
## #   movie_imdb_link <fctr>, num_user_for_reviews <int>, language <fctr>,
## #   country <fctr>, content_rating <fctr>, budget <dbl>, title_year <int>,
## #   actor_2_facebook_likes <int>, imdb_score <dbl>, aspect_ratio <dbl>,
…
Next, we filter out all top 10 countries that produces movies

countries <- movies %>%
  select(country, imdb_score, gross) %>%
  filter(country  %in% top_10_country$country)

countries

## # A tibble: 4,830 x 3
##    country imdb_score     gross
##     <fctr>      <dbl>     <int>
##  1     USA        7.9 760505847
##  2     USA        7.1 309404152
##  3      UK        6.8 200074175
##  4     USA        8.5 448130642
##  5     USA        6.6  73058679
##  6     USA        6.2 336530303
##  7     USA        7.8 200807262
##  8     USA        7.5 458991599
##  9      UK        7.5 301956980
## 10     USA        6.9 330249062
## # ... with 4,820 more rows
…
Lts scope in to all the movies after 1965

year <- movies %>%
  select(title_year, imdb_score, gross) %>%
  filter(title_year >= 1965) %>%
  arrange(title_year) 

year

## # A tibble: 4,827 x 3
##    title_year imdb_score     gross
##         <int>      <dbl>     <int>
##  1       1965        6.6   8000000
##  2       1965        8.0 111722000
##  3       1965        7.0  63600000
##  4       1965        8.0 163214286
##  5       1965        6.8     14873
##  6       1965        7.3        NA
##  7       1965        7.7        NA
##  8       1965        8.4        NA
##  9       1966        7.9        NA
## 10       1966        7.0        NA
## # ... with 4,817 more rows
…
Looking at the plot, what if we instead what to show the proportion of movies created by the top 10 countries against the total movies available? Meaning, we want to have 10 subplots of the top 10 countrys only with the backdrop of the above plot?

The following steps allow us to do so.

We filter out those country thats lies in the top 10 range.

facebook_pop <- movies %>%
  select(country, movie_title, imdb_score, movie_facebook_likes) %>%
  filter(country  %in% top_10_country$country); facebook_pop

## # A tibble: 4,830 x 4
##    country                                movie_title imdb_score
##     <fctr>                                     <fctr>      <dbl>
##  1     USA                                   AvatarÂ         7.9
##  2     USA Pirates of the Caribbean: At World's EndÂ         7.1
##  3      UK                                  SpectreÂ         6.8
##  4     USA                    The Dark Knight RisesÂ         8.5
##  5     USA                              John CarterÂ         6.6
##  6     USA                             Spider-Man 3Â         6.2
##  7     USA                                  TangledÂ         7.8
##  8     USA                  Avengers: Age of UltronÂ         7.5
##  9      UK   Harry Potter and the Half-Blood PrinceÂ         7.5
## 10     USA       Batman v Superman: Dawn of JusticeÂ         6.9
## # ... with 4,820 more rows, and 1 more variables:
## #   movie_facebook_likes <int>
…
Lets filtering out the Top N Director with facebook likes above 10K

top_n_director <- movies %>%
  select(director_name, director_facebook_likes) %>%
  arrange(desc(director_facebook_likes), director_name) %>%
  distinct() %>%
  filter(director_facebook_likes >= 10000)

top_n_director

## # A tibble: 21 x 2
##           director_name director_facebook_likes
##                  <fctr>                   <int>
##  1 Joseph Gordon-Levitt                   23000
##  2    Christopher Nolan                   22000
##  3        David Fincher                   21000
##  4       Derick Martini                   20000
##  5    Denzel Washington                   18000
##  6         Kevin Spacey                   18000
##  7      Martin Scorsese                   17000
##  8       Clint Eastwood                   16000
##  9    Quentin Tarantino                   16000
## 10            Tom Hanks                   15000
## # ... with 11 more rows

Sort out the top director and their movies

direc_fb_pop <- movies %>%
  select(movie_title, director_name, director_facebook_likes, imdb_score) %>%
  arrange(desc(director_facebook_likes), director_name, desc(imdb_score), movie_title) %>%
  filter(director_name %in% top_n_director$director_name); direc_fb_pop

## # A tibble: 181 x 4
##                movie_title        director_name director_facebook_likes
##                     <fctr>               <fctr>                   <int>
##  1               Don JonÂ  Joseph Gordon-Levitt                   23000
##  2       The Dark KnightÂ     Christopher Nolan                   22000
##  3             InceptionÂ     Christopher Nolan                   22000
##  4          InterstellarÂ     Christopher Nolan                   22000
##  5               MementoÂ     Christopher Nolan                   22000
##  6 The Dark Knight RisesÂ     Christopher Nolan                   22000
##  7          The PrestigeÂ     Christopher Nolan                   22000
##  8         Batman BeginsÂ     Christopher Nolan                   22000
##  9              InsomniaÂ     Christopher Nolan                   22000
## 10            Fight ClubÂ         David Fincher                   21000
## # ... with 171 more rows, and 1 more variables: imdb_score <dbl>
…
To list out the top 4 movies for each director above 10K likes

direc_fb_pop %>%
  group_by(director_name) %>%
  top_n(4)

## Selecting by imdb_score

## # A tibble: 71 x 4
## # Groups:   director_name [21]
##                movie_title        director_name director_facebook_likes
##                     <fctr>               <fctr>                   <int>
##  1               Don JonÂ  Joseph Gordon-Levitt                   23000
##  2       The Dark KnightÂ     Christopher Nolan                   22000
##  3             InceptionÂ     Christopher Nolan                   22000
##  4          InterstellarÂ     Christopher Nolan                   22000
##  5               MementoÂ     Christopher Nolan                   22000
##  6 The Dark Knight RisesÂ     Christopher Nolan                   22000
##  7          The PrestigeÂ     Christopher Nolan                   22000
##  8            Fight ClubÂ         David Fincher                   21000
##  9                 Se7enÂ         David Fincher                   21000
## 10             Gone GirlÂ         David Fincher                   21000
## # ... with 61 more rows, and 1 more variables: imdb_score <dbl>
…
movies %>%
  select(movie_title, 
         director_name, 
         director_facebook_likes, 
         actor_1_name, 
         actor_1_facebook_likes, 
         imdb_score) %>%
  arrange(desc(director_facebook_likes),
          director_name, 
          desc(imdb_score), 
          movie_title) %>%
  filter(director_name %in% top_n_director$director_name)

## # A tibble: 181 x 6
##                movie_title        director_name director_facebook_likes
##                     <fctr>               <fctr>                   <int>
##  1               Don JonÂ  Joseph Gordon-Levitt                   23000
##  2       The Dark KnightÂ     Christopher Nolan                   22000
##  3             InceptionÂ     Christopher Nolan                   22000
##  4          InterstellarÂ     Christopher Nolan                   22000
##  5               MementoÂ     Christopher Nolan                   22000
##  6 The Dark Knight RisesÂ     Christopher Nolan                   22000
##  7          The PrestigeÂ     Christopher Nolan                   22000
##  8         Batman BeginsÂ     Christopher Nolan                   22000
##  9              InsomniaÂ     Christopher Nolan                   22000
## 10            Fight ClubÂ         David Fincher                   21000
## # ... with 171 more rows, and 3 more variables: actor_1_name <fctr>,
## #   actor_1_facebook_likes <int>, imdb_score <dbl>
…
movies_num

## # A tibble: 5,043 x 14
##    imdb_score director_facebook_likes cast_total_facebook_likes
##         <dbl>                   <int>                     <int>
##  1        7.9                       0                      4834
##  2        7.1                     563                     48350
##  3        6.8                       0                     11700
##  4        8.5                   22000                    106759
##  5        7.1                     131                       143
##  6        6.6                     475                      1873
##  7        6.2                       0                     46055
##  8        7.8                      15                      2036
##  9        7.5                       0                     92000
## 10        7.5                     282                     58753
## # ... with 5,033 more rows, and 11 more variables:
## #   num_critic_for_reviews <int>, duration <int>, num_voted_users <int>,
## #   actor_1_facebook_likes <int>, actor_2_facebook_likes <int>,
## #   actor_3_facebook_likes <int>, movie_facebook_likes <int>,
## #   facenumber_in_poster <int>, title_year <int>, gross <int>,
## #   budget <dbl>
…
